{
  "count": 34,
  "next": "https://secure.tutorcruncher.com/api/payment-orders/?page=2",
  "previous": null,
  "results": [
    {
      "id": 22,
      "display_id": "PO-2",
      "amount": "55.00",
      "date_sent": "2020-01-01T00:00:00Z",
      "payee": {
          "id": 68,
          "first_name": "Jane",
          "last_name": "con_a",
          "email": "jane_con_a@example.com",
          "url": "https://secure.tutorcruncher.com/api/contractors/68/"
      },
      "status": "unpaid",
      "url": "https://secure.tutorcruncher.com/api/payment-orders/22/"
    },
    ...
  ]
}
