{
  "count": 34,
  "next": "https://secure.tutorcruncher.com/api/invoices/?page=2",
  "previous": null,
  "results": [
    {
      "id": 10,
      "start": "2020-01-01T12:00:00Z",
      "finish": "2020-01-01T13:00:00Z",
      "topic": "Lesson 1",
      "status": 10,
      "service_id": 2,
      "service_name": "Maths GCSE",
      "url": "https://secure.tutorcruncher.com/api/invoices/10/"
    },
    ...
  ]
}
