{
  "count": 125,
  "next": "https://secure.tutorcruncher.com/api/contractors/?page=2",
  "previous": null,
  "results": [
    { "id": 1, "first_name": "John", "last_name": "Doe", ... },
    { "id": 2, "first_name": "Jane", "last_name": "Smith", ... },
    ...
  ]
}

